VL53L0X.c:18:6:setup_VL53L0X	0	static
VL53L0X.c:30:9:getAddress	0	static
VL53L0X.c:275:6:writeReg	40	static
VL53L0X.c:24:6:setAddress	16	static
VL53L0X.c:284:6:writeReg16Bit	40	static
VL53L0X.c:291:6:writeReg32Bit	40	static
VL53L0X.c:298:9:readReg	32	static
VL53L0X.c:35:9:getWhoAmI	0	static
VL53L0X.c:308:10:readReg16Bit	32	static
VL53L0X.c:318:10:readReg32Bit	32	static
VL53L0X.c:337:6:setSignalRateLimit	24	static
VL53L0X.c:347:7:getSignalRateLimit	8	static
VL53L0X.c:679:9:getVcselPulsePeriod	8	static
VL53L0X.c:698:6:startContinuous	16	static
VL53L0X.c:737:6:stopContinuous	8	static
VL53L0X.c:807:6:setTimeout	0	static
VL53L0X.c:812:10:getTimeout	0	static
VL53L0X.c:819:6:timeoutOccurred	0	static
VL53L0X.c:873:6:getSequenceStepEnables	8	static
VL53L0X.c:922:10:decodeTimeout	0	static
VL53L0X.c:933:10:encodeTimeout	0	static
VL53L0X.c:957:10:timeoutMclksToMicroseconds	8	static
VL53L0X.c:888:6:getSequenceStepTimeouts	16	static
VL53L0X.c:448:10:getMeasurementTimingBudget	40	static
VL53L0X.c:966:10:timeoutMicrosecondsToMclks	0	static
VL53L0X.c:359:6:setMeasurementTimingBudget	56	static
VL53L0X.c:995:6:startTimeout	8	static
VL53L0X.c:1001:6:checkTimeoutExpired	8	static
VL53L0X.c:751:10:readRangeContinuousMillimeters	16	static
VL53L0X.c:781:10:readRangeSingleMillimeters	8	static
VL53L0X.c:831:6:getSpadInfo	24	static
VL53L0X.c:975:6:performSingleRefCalibration	16	static
VL53L0X.c:48:6:init	40	static
VL53L0X.c:502:6:setVcselPulsePeriod	56	static
VL53L0X.c:1016:9:decodeVcselPeriod	0	static
VL53L0X.c:1023:9:encodeVcselPeriod	0	static
VL53L0X.c:1031:10:calcMacroPeriod	0	static
